%YAML 1.1
%TAG !u! tag:unity3d.com,2011:
--- !u!74 &7400000
AnimationClip:
  m_ObjectHideFlags: 0
  m_CorrespondingSourceObject: {fileID: 0}
  m_PrefabInstance: {fileID: 0}
  m_PrefabAsset: {fileID: 0}
  m_Name: PlayerAtk
  serializedVersion: 6
  m_Legacy: 0
  m_Compressed: 0
  m_UseHighQualityCurve: 1
  m_RotationCurves: []
  m_CompressedRotationCurves: []
  m_EulerCurves: []
  m_PositionCurves: []
  m_ScaleCurves: []
  m_FloatCurves: []
  m_PPtrCurves:
  - curve:
    - time: 0
      value: {fileID: -78673784536900861, guid: 09d53bbadd817934381c2eced120f4d1,
        type: 3}
    - time: 0.05
      value: {fileID: -1199230084145653195, guid: 09d53bbadd817934381c2eced120f4d1,
        type: 3}
    - time: 0.1
      value: {fileID: -5472844189935223715, guid: 09d53bbadd817934381c2eced120f4d1,
        type: 3}
    - time: 0.15
      value: {fileID: -5514443298977046513, guid: 09d53bbadd817934381c2eced120f4d1,
        type: 3}
    - time: 0.2
      value: {fileID: 3161034406588630699, guid: 09d53bbadd817934381c2eced120f4d1,
        type: 3}
    - time: 0.25
      value: {fileID: -647573254877236333, guid: 09d53bbadd817934381c2eced120f4d1,
        type: 3}
    - time: 0.3
      value: {fileID: -3502898532032313657, guid: 09d53bbadd817934381c2eced120f4d1,
        type: 3}
    - time: 0.35
      value: {fileID: -8224187350377487339, guid: 09d53bbadd817934381c2eced120f4d1,
        type: 3}
    - time: 0.4
      value: {fileID: -3347920155568363578, guid: 09d53bbadd817934381c2eced120f4d1,
        type: 3}
    - time: 0.45
      value: {fileID: -6261837473137335219, guid: 09d53bbadd817934381c2eced120f4d1,
        type: 3}
    - time: 0.5
      value: {fileID: 4876304391140009038, guid: 09d53bbadd817934381c2eced120f4d1,
        type: 3}
    - time: 0.55
      value: {fileID: 2554447015866745371, guid: 09d53bbadd817934381c2eced120f4d1,
        type: 3}
    - time: 0.6
      value: {fileID: -6234353621128697095, guid: 09d53bbadd817934381c2eced120f4d1,
        type: 3}
    - time: 0.65
      value: {fileID: 3623205961078866214, guid: 09d53bbadd817934381c2eced120f4d1,
        type: 3}
    - time: 0.7
      value: {fileID: 33431426592827595, guid: 09d53bbadd817934381c2eced120f4d1, type: 3}
    attribute: m_Sprite
    path: 
    classID: 212
    script: {fileID: 0}
  m_SampleRate: 20
  m_WrapMode: 0
  m_Bounds:
    m_Center: {x: 0, y: 0, z: 0}
    m_Extent: {x: 0, y: 0, z: 0}
  m_ClipBindingConstant:
    genericBindings:
    - serializedVersion: 2
      path: 0
      attribute: 0
      script: {fileID: 0}
      typeID: 212
      customType: 23
      isPPtrCurve: 1
    pptrCurveMapping:
    - {fileID: -78673784536900861, guid: 09d53bbadd817934381c2eced120f4d1, type: 3}
    - {fileID: -1199230084145653195, guid: 09d53bbadd817934381c2eced120f4d1, type: 3}
    - {fileID: -5472844189935223715, guid: 09d53bbadd817934381c2eced120f4d1, type: 3}
    - {fileID: -5514443298977046513, guid: 09d53bbadd817934381c2eced120f4d1, type: 3}
    - {fileID: 3161034406588630699, guid: 09d53bbadd817934381c2eced120f4d1, type: 3}
    - {fileID: -647573254877236333, guid: 09d53bbadd817934381c2eced120f4d1, type: 3}
    - {fileID: -3502898532032313657, guid: 09d53bbadd817934381c2eced120f4d1, type: 3}
    - {fileID: -8224187350377487339, guid: 09d53bbadd817934381c2eced120f4d1, type: 3}
    - {fileID: -3347920155568363578, guid: 09d53bbadd817934381c2eced120f4d1, type: 3}
    - {fileID: -6261837473137335219, guid: 09d53bbadd817934381c2eced120f4d1, type: 3}
    - {fileID: 4876304391140009038, guid: 09d53bbadd817934381c2eced120f4d1, type: 3}
    - {fileID: 2554447015866745371, guid: 09d53bbadd817934381c2eced120f4d1, type: 3}
    - {fileID: -6234353621128697095, guid: 09d53bbadd817934381c2eced120f4d1, type: 3}
    - {fileID: 3623205961078866214, guid: 09d53bbadd817934381c2eced120f4d1, type: 3}
    - {fileID: 33431426592827595, guid: 09d53bbadd817934381c2eced120f4d1, type: 3}
  m_AnimationClipSettings:
    serializedVersion: 2
    m_AdditiveReferencePoseClip: {fileID: 0}
    m_AdditiveReferencePoseTime: 0
    m_StartTime: 0
    m_StopTime: 0.75
    m_OrientationOffsetY: 0
    m_Level: 0
    m_CycleOffset: 0
    m_HasAdditiveReferencePose: 0
    m_LoopTime: 0
    m_LoopBlend: 0
    m_LoopBlendOrientation: 0
    m_LoopBlendPositionY: 0
    m_LoopBlendPositionXZ: 0
    m_KeepOriginalOrientation: 0
    m_KeepOriginalPositionY: 1
    m_KeepOriginalPositionXZ: 0
    m_HeightFromFeet: 0
    m_Mirror: 0
  m_EditorCurves: []
  m_EulerEditorCurves: []
  m_HasGenericRootTransform: 0
  m_HasMotionFloatCurves: 0
  m_Events: []
